sim/tests/sltiu/streamwave.vcd
$date
	Mon Feb 19 17:07:49 2018
$end
$version
	Icarus Verilog
$end
$timescale
	1ps
$end
$scope module userlogic_test $end
$var wire 32 ! data_out [31:0] $end
$var wire 15 " input_buffer_addr [14:0] $end
$var wire 15 # output_buffer_addr [14:0] $end
$var wire 32 $ ul_instr [31:0] $end
$var wire 32 % ul_instr_addr [31:0] $end
$var wire 32 & ul_read_addr [31:0] $end
$var wire 32 ' ul_read_data [31:0] $end
$var wire 32 ( ul_status [31:0] $end
$var wire 32 ) ul_test [31:0] $end
$var wire 32 * ul_write_addr [31:0] $end
$var wire 32 + ul_write_data [31:0] $end
$var wire 16 , ul_write_data_hi [15:0] $end
$var wire 16 - ul_write_data_lo [15:0] $end
$var wire 2 . ul_write_en_hi [1:0] $end
$var wire 2 / ul_write_en_lo [1:0] $end
$var reg 1 0 clk $end
$var reg 32 1 cycle_count [32:1] $end
$var integer 32 2 dump_vars [31:0] $end
$var reg 8192 3 dump_vars_filename [8192:1] $end
$var integer 32 4 i [31:0] $end
$var reg 10 5 image_n_columns [9:0] $end
$var reg 10 6 image_n_rows [9:0] $end
$var reg 8192 7 input_buffer_filename [8192:1] $end
$var reg 8192 8 instr_mem_filename [8192:1] $end
$var reg 32 9 num_cycles [32:1] $end
$var reg 33 : out_end_addr [32:0] $end
$var reg 33 ; out_start_addr [32:0] $end
$var integer 32 < outfile [31:0] $end
$var reg 8192 = output_buffer_filename [8192:1] $end
$var reg 15 > read_addr [14:0] $end
$var integer 32 ? read_input_buffer [31:0] $end
$var integer 32 @ read_instr_mem [31:0] $end
$var integer 32 A result [31:0] $end
$var reg 1 B rst_n $end
$var reg 8192 C test_result_filename [8192:1] $end
$var reg 32 D ul_command [31:0] $end
$var integer 32 E write_output_buffer [31:0] $end
$var integer 32 F write_test_result [31:0] $end
$scope module instr_mem $end
$var wire 14 G addr [13:0] $end
$var wire 1 H clk $end
$var wire 32 I din [31:0] $end
$var wire 1 J we $end
$var reg 32 K dout [31:0] $end
$upscope $end
$scope module input_buffer $end
$var wire 15 L addr [14:0] $end
$var wire 1 H clk $end
$var wire 32 M din [31:0] $end
$var wire 1 N we $end
$var reg 32 O dout [31:0] $end
$upscope $end
$scope module output_buffer $end
$var wire 15 P addr [14:0] $end
$var wire 1 H clk $end
$var wire 32 Q din [31:0] $end
$var wire 4 R we [3:0] $end
$var reg 32 S dout [31:0] $end
$scope begin column[0] $end
$upscope $end
$scope begin column[1] $end
$upscope $end
$scope begin column[2] $end
$upscope $end
$scope begin column[3] $end
$upscope $end
$upscope $end
$scope module ul $end
$var wire 1 T addr_cmd $end
$var wire 1 U addr_iobuf $end
$var wire 1 V addr_local $end
$var wire 1 W addr_status $end
$var wire 1 X addr_test $end
$var wire 1 H clk $end
$var wire 32 Y command [31:0] $end
$var wire 32 Z instr [31:0] $end
$var wire 32 [ instr_addr [31:0] $end
$var wire 32 \ mips_addr [31:0] $end
$var wire 32 ] mips_local_read_data [31:0] $end
$var wire 32 ^ mips_pc [31:0] $end
$var wire 32 _ mips_read_data [31:0] $end
$var wire 1 ` mips_read_en $end
$var wire 4 a mips_write_en [3:0] $end
$var wire 32 b read_addr_hi [31:0] $end
$var wire 32 c read_addr_lo [31:0] $end
$var wire 32 d read_data [31:0] $end
$var wire 16 e read_data_hi [15:0] $end
$var wire 16 f read_data_lo [15:0] $end
$var wire 1 g rst_n $end
$var wire 32 h status [31:0] $end
$var wire 32 i test [31:0] $end
$var wire 32 j write_addr_hi [31:0] $end
$var wire 32 k write_addr_lo [31:0] $end
$var wire 32 l write_data [31:0] $end
$var wire 16 m write_data_hi [15:0] $end
$var wire 16 n write_data_lo [15:0] $end
$var wire 2 o write_en_hi [1:0] $end
$var wire 2 p write_en_lo [1:0] $end
$var reg 32 q cmd_d [31:0] $end
$var reg 1 r read_cmd_d $end
$var reg 1 s read_iobuf_d $end
$var reg 32 t status_reg [31:0] $end
$var reg 32 u test_reg [31:0] $end
$scope module cpu $end
$var wire 32 v alu_op_x_ex [31:0] $end
$var wire 32 w alu_op_x_id [31:0] $end
$var wire 32 x alu_op_y_ex [31:0] $end
$var wire 32 y alu_op_y_id [31:0] $end
$var wire 1 z alu_op_y_zero_ex $end
$var wire 4 { alu_opcode_ex [3:0] $end
$var wire 4 | alu_opcode_id [3:0] $end
$var wire 1 } alu_overflow $end
$var wire 32 ~ alu_result_ex [31:0] $end
$var wire 32 !" alu_result_mem [31:0] $end
$var wire 32 "" alu_sc_result_ex [31:0] $end
$var wire 1 #" atomic_en $end
$var wire 1 H clk $end
$var wire 1 $" en $end
$var wire 1 %" en_if $end
$var wire 32 &" instr [31:0] $end
$var wire 32 '" instr_id [31:0] $end
$var wire 30 (" instr_number_id [29:0] $end
$var wire 32 )" instr_sav [31:0] $end
$var wire 32 *" jr_pc_id [31:0] $end
$var wire 1 +" jump_branch_id $end
$var wire 1 ," jump_reg_id $end
$var wire 1 -" jump_target_id $end
$var wire 32 ." mem_addr [31:0] $end
$var wire 1 /" mem_atomic_ex $end
$var wire 1 0" mem_atomic_id $end
$var wire 1 1" mem_byte_ex $end
$var wire 1 2" mem_byte_id $end
$var wire 1 3" mem_byte_mem $end
$var wire 32 4" mem_out [31:0] $end
$var wire 32 5" mem_read_data [31:0] $end
$var wire 32 6" mem_read_data_byte_extend [31:0] $end
$var wire 8 7" mem_read_data_byte_select [7:0] $end
$var wire 1 ` mem_read_en $end
$var wire 1 8" mem_read_ex $end
$var wire 1 9" mem_read_id $end
$var wire 1 :" mem_read_mem $end
$var wire 1 ;" mem_sc_ex $end
$var wire 1 <" mem_sc_id $end
$var wire 1 =" mem_sc_mask_id $end
$var wire 1 >" mem_signextend_ex $end
$var wire 1 ?" mem_signextend_id $end
$var wire 1 @" mem_signextend_mem $end
$var wire 1 A" mem_we_ex $end
$var wire 1 B" mem_we_id $end
$var wire 32 C" mem_write_data [31:0] $end
$var wire 32 D" mem_write_data_ex [31:0] $end
$var wire 32 E" mem_write_data_id [31:0] $end
$var wire 4 F" mem_write_en [3:0] $end
$var wire 1 G" movn_ex $end
$var wire 1 H" movn_id $end
$var wire 1 I" movz_ex $end
$var wire 1 J" movz_id $end
$var wire 32 K" pc [31:0] $end
$var wire 32 L" pc_id [31:0] $end
$var wire 32 M" pc_if [31:0] $end
$var wire 1 N" reg_we_cond_ex $end
$var wire 1 O" reg_we_ex $end
$var wire 1 P" reg_we_id $end
$var wire 1 Q" reg_we_mem $end
$var wire 1 R" reg_we_wb $end
$var wire 5 S" reg_write_addr_ex [4:0] $end
$var wire 5 T" reg_write_addr_id [4:0] $end
$var wire 5 U" reg_write_addr_mem [4:0] $end
$var wire 5 V" reg_write_addr_wb [4:0] $end
$var wire 32 W" reg_write_data_mem [31:0] $end
$var wire 32 X" reg_write_data_wb [31:0] $end
$var wire 5 Y" rs_addr_id [4:0] $end
$var wire 32 Z" rs_data_id [31:0] $end
$var wire 1 [" rst $end
$var wire 1 \" rst_id $end
$var wire 5 ]" rt_addr_id [4:0] $end
$var wire 32 ^" rt_data_id [31:0] $end
$var wire 32 _" sc_result [31:0] $end
$var wire 1 `" stall $end
$var wire 1 a" stall_r $end
$scope module if_stage $end
$var wire 32 b" b_addr [31:0] $end
$var wire 1 +" branch_target $end
$var wire 1 H clk $end
$var wire 1 %" en $end
$var wire 26 c" instr_id [25:0] $end
$var wire 32 d" j_addr [31:0] $end
$var wire 32 e" jr_pc_id [31:0] $end
$var wire 1 ," jump_reg $end
$var wire 1 -" jump_target $end
$var wire 32 f" pc [31:0] $end
$var wire 32 g" pc_id [31:0] $end
$var wire 32 h" pc_id_p4 [31:0] $end
$var wire 32 i" pc_next [31:0] $end
$var wire 1 [" rst $end
$scope module pc_reg $end
$var wire 1 H clk $end
$var wire 32 j" d [31:0] $end
$var wire 1 %" en $end
$var wire 1 [" r $end
$var reg 32 k" q [31:0] $end
$upscope $end
$upscope $end
$scope module pc_if2id $end
$var wire 1 H clk $end
$var wire 32 l" d [31:0] $end
$var wire 1 %" en $end
$var wire 1 [" r $end
$var reg 32 m" q [31:0] $end
$upscope $end
$scope module instr_sav_dff $end
$var wire 1 H clk $end
$var wire 32 n" d [31:0] $end
$var wire 1 $" en $end
$var wire 1 [" r $end
$var reg 32 o" q [31:0] $end
$upscope $end
$scope module stall_f_dff $end
$var wire 1 H clk $end
$var wire 1 `" d $end
$var wire 1 $" en $end
$var wire 1 [" r $end
$var reg 1 p" q $end
$upscope $end
$scope module d_stage $end
$var wire 32 q" alu_op_x [31:0] $end
$var wire 32 r" alu_op_y [31:0] $end
$var wire 32 s" alu_result_ex [31:0] $end
$var wire 1 /" atomic_ex $end
$var wire 1 0" atomic_id $end
$var wire 1 t" equalZero $end
$var wire 1 u" forward_rs_mem $end
$var wire 6 v" funct [5:0] $end
$var wire 1 w" gtz $end
$var wire 32 x" imm [31:0] $end
$var wire 32 y" imm_sign_extend [31:0] $end
$var wire 32 z" imm_upper [31:0] $end
$var wire 32 {" imm_zero_extended [31:0] $end
$var wire 16 |" immediate [15:0] $end
$var wire 32 }" instr [31:0] $end
$var wire 1 ~" isALUImm $end
$var wire 1 !# isBEQ $end
$var wire 1 "# isBGEZAL $end
$var wire 1 ## isBGEZNL $end
$var wire 1 $# isBGTZ $end
$var wire 1 %# isBLEZ $end
$var wire 1 &# isBLTZAL $end
$var wire 1 '# isBLTZNL $end
$var wire 1 (# isBNE $end
$var wire 1 )# isBranchLink $end
$var wire 1 *# isEqual $end
$var wire 1 +# isJ $end
$var wire 1 ,# isLUI $end
$var wire 1 -# isSLL $end
$var wire 1 .# isSLLV $end
$var wire 1 /# isSRA $end
$var wire 1 0# isSRL $end
$var wire 1 1# isSRLV $end
$var wire 1 2# isShift $end
$var wire 1 3# isShiftImm $end
$var wire 1 4# isZeroExtended $end
$var wire 32 5# jr_pc [31:0] $end
$var wire 1 +" jump_branch $end
$var wire 1 ," jump_reg $end
$var wire 1 -" jump_target $end
$var wire 1 2" mem_byte $end
$var wire 1 9" mem_read $end
$var wire 1 8" mem_read_ex $end
$var wire 1 <" mem_sc_id $end
$var wire 1 =" mem_sc_mask_id $end
$var wire 1 ?" mem_signextend $end
$var wire 1 B" mem_we $end
$var wire 32 6# mem_write_data [31:0] $end
$var wire 1 H" movn $end
$var wire 1 J" movz $end
$var wire 6 7# op [5:0] $end
$var wire 32 8# pc [31:0] $end
$var wire 5 9# rd_addr [4:0] $end
$var wire 1 :# read_from_rs $end
$var wire 1 ;# read_from_rt $end
$var wire 1 P" reg_we $end
$var wire 1 O" reg_we_ex $end
$var wire 1 Q" reg_we_mem $end
$var wire 5 <# reg_write_addr [4:0] $end
$var wire 5 =# reg_write_addr_ex [4:0] $end
$var wire 5 ># reg_write_addr_mem [4:0] $end
$var wire 32 ?# reg_write_data_mem [31:0] $end
$var wire 5 @# rs_addr [4:0] $end
$var wire 32 A# rs_data [31:0] $end
$var wire 32 B# rs_data_in [31:0] $end
$var wire 1 C# rs_mem_dependency $end
$var wire 5 D# rt_addr [4:0] $end
$var wire 32 E# rt_data [31:0] $end
$var wire 32 F# rt_data_in [31:0] $end
$var wire 5 G# shamt [4:0] $end
$var wire 32 H# shift_amount [31:0] $end
$var wire 1 `" stall $end
$var wire 1 I# use_imm $end
$var reg 4 J# alu_opcode [3:0] $end
$upscope $end
$scope module atomic $end
$var wire 1 [" ar $end
$var wire 1 H clk $end
$var wire 1 0" d $end
$var wire 1 #" en $end
$var wire 1 \" r $end
$var reg 1 K# q $end
$upscope $end
$scope module sc $end
$var wire 1 [" ar $end
$var wire 1 H clk $end
$var wire 1 <" d $end
$var wire 1 $" en $end
$var wire 1 \" r $end
$var reg 1 L# q $end
$upscope $end
$scope module alu_op_x_id2ex $end
$var wire 1 [" ar $end
$var wire 1 H clk $end
$var wire 32 M# d [31:0] $end
$var wire 1 $" en $end
$var wire 1 \" r $end
$var reg 32 N# q [31:0] $end
$upscope $end
$scope module alu_op_y_id2ex $end
$var wire 1 [" ar $end
$var wire 1 H clk $end
$var wire 32 O# d [31:0] $end
$var wire 1 $" en $end
$var wire 1 \" r $end
$var reg 32 P# q [31:0] $end
$upscope $end
$scope module alu_opcode_id2ex $end
$var wire 1 [" ar $end
$var wire 1 H clk $end
$var wire 4 Q# d [3:0] $end
$var wire 1 $" en $end
$var wire 1 \" r $end
$var reg 4 R# q [3:0] $end
$upscope $end
$scope module movn $end
$var wire 1 [" ar $end
$var wire 1 H clk $end
$var wire 1 H" d $end
$var wire 1 $" en $end
$var wire 1 \" r $end
$var reg 1 S# q $end
$upscope $end
$scope module movz $end
$var wire 1 [" ar $end
$var wire 1 H clk $end
$var wire 1 J" d $end
$var wire 1 $" en $end
$var wire 1 \" r $end
$var reg 1 T# q $end
$upscope $end
$scope module mem_write_data_id2ex $end
$var wire 1 [" ar $end
$var wire 1 H clk $end
$var wire 32 U# d [31:0] $end
$var wire 1 $" en $end
$var wire 1 \" r $end
$var reg 32 V# q [31:0] $end
$upscope $end
$scope module mem_we_id2ex $end
$var wire 1 [" ar $end
$var wire 1 H clk $end
$var wire 1 W# d $end
$var wire 1 $" en $end
$var wire 1 \" r $end
$var reg 1 X# q $end
$upscope $end
$scope module mem_read_id2ex $end
$var wire 1 [" ar $end
$var wire 1 H clk $end
$var wire 1 9" d $end
$var wire 1 $" en $end
$var wire 1 \" r $end
$var reg 1 Y# q $end
$upscope $end
$scope module mem_byte_id2ex $end
$var wire 1 [" ar $end
$var wire 1 H clk $end
$var wire 1 2" d $end
$var wire 1 $" en $end
$var wire 1 \" r $end
$var reg 1 Z# q $end
$upscope $end
$scope module mem_signextend_id2ex $end
$var wire 1 [" ar $end
$var wire 1 H clk $end
$var wire 1 ?" d $end
$var wire 1 $" en $end
$var wire 1 \" r $end
$var reg 1 [# q $end
$upscope $end
$scope module reg_write_addr_id2ex $end
$var wire 1 [" ar $end
$var wire 1 H clk $end
$var wire 5 \# d [4:0] $end
$var wire 1 $" en $end
$var wire 1 \" r $end
$var reg 5 ]# q [4:0] $end
$upscope $end
$scope module reg_we_id2ex $end
$var wire 1 [" ar $end
$var wire 1 H clk $end
$var wire 1 P" d $end
$var wire 1 $" en $end
$var wire 1 \" r $end
$var reg 1 ^# q $end
$upscope $end
$scope module x_stage $end
$var wire 1 _# add_check $end
$var wire 1 `# add_neg_over $end
$var wire 1 a# add_pos_over $end
$var wire 1 b# alu_neg $end
$var wire 32 c# alu_op_x [31:0] $end
$var wire 32 d# alu_op_x_signed [31:0] $end
$var wire 32 e# alu_op_y [31:0] $end
$var wire 32 f# alu_op_y_signed [31:0] $end
$var wire 1 z alu_op_y_zero $end
$var wire 4 g# alu_opcode [3:0] $end
$var wire 1 } alu_overflow $end
$var wire 1 h# sub_check $end
$var wire 1 i# sub_neg_over $end
$var wire 1 j# sub_pos_over $end
$var wire 1 k# x_neg $end
$var wire 1 l# y_neg $end
$var reg 32 m# alu_result [31:0] $end
$upscope $end
$scope module alu_result_ex2mem $end
$var wire 1 H clk $end
$var wire 32 n# d [31:0] $end
$var wire 1 $" en $end
$var wire 1 [" r $end
$var reg 32 o# q [31:0] $end
$upscope $end
$scope module mem_read_ex2mem $end
$var wire 1 H clk $end
$var wire 1 8" d $end
$var wire 1 $" en $end
$var wire 1 [" r $end
$var reg 1 p# q $end
$upscope $end
$scope module mem_byte_ex2mem $end
$var wire 1 H clk $end
$var wire 1 1" d $end
$var wire 1 $" en $end
$var wire 1 [" r $end
$var reg 1 q# q $end
$upscope $end
$scope module mem_signextend_ex2mem $end
$var wire 1 H clk $end
$var wire 1 >" d $end
$var wire 1 $" en $end
$var wire 1 [" r $end
$var reg 1 r# q $end
$upscope $end
$scope module reg_write_addr_ex2mem $end
$var wire 1 H clk $end
$var wire 5 s# d [4:0] $end
$var wire 1 $" en $end
$var wire 1 [" r $end
$var reg 5 t# q [4:0] $end
$upscope $end
$scope module reg_we_ex2mem $end
$var wire 1 H clk $end
$var wire 1 O" d $end
$var wire 1 $" en $end
$var wire 1 [" r $end
$var reg 1 u# q $end
$upscope $end
$scope module reg_write_data_mem2wb $end
$var wire 1 H clk $end
$var wire 32 v# d [31:0] $end
$var wire 1 $" en $end
$var wire 1 [" r $end
$var reg 32 w# q [31:0] $end
$upscope $end
$scope module reg_write_addr_mem2wb $end
$var wire 1 H clk $end
$var wire 5 x# d [4:0] $end
$var wire 1 $" en $end
$var wire 1 [" r $end
$var reg 5 y# q [4:0] $end
$upscope $end
$scope module reg_we_mem2wb $end
$var wire 1 H clk $end
$var wire 1 Q" d $end
$var wire 1 $" en $end
$var wire 1 [" r $end
$var reg 1 z# q $end
$upscope $end
$scope module w_stage $end
$var wire 1 H clk $end
$var wire 1 $" en $end
$var wire 1 R" reg_we $end
$var wire 5 {# reg_write_addr [4:0] $end
$var wire 32 |# reg_write_data [31:0] $end
$var wire 5 }# rs_addr [4:0] $end
$var wire 32 ~# rs_data [31:0] $end
$var wire 5 !$ rt_addr [4:0] $end
$var wire 32 "$ rt_data [31:0] $end
$upscope $end
$upscope $end
$scope module mips_local_store $end
$var wire 12 #$ addr [11:0] $end
$var wire 1 H clk $end
$var wire 32 $$ din [31:0] $end
$var wire 4 %$ we [3:0] $end
$var reg 32 &$ dout [31:0] $end
$scope begin column[0] $end
$upscope $end
$scope begin column[1] $end
$upscope $end
$scope begin column[2] $end
$upscope $end
$scope begin column[3] $end
$upscope $end
$upscope $end
$upscope $end
$upscope $end
$enddefinitions $end
#0
$dumpvars
bx &$
b0 %$
b0 $$
b0 #$
bx "$
bx !$
bx ~#
bx }#
b0 |#
b0 {#
0z#
b0 y#
b0 x#
b0 w#
b0 v#
0u#
b0 t#
b0 s#
0r#
0q#
0p#
b0 o#
b0 n#
b0 m#
0l#
0k#
0j#
0i#
0h#
b0 g#
b0 f#
b0 e#
b0 d#
b0 c#
0b#
0a#
0`#
0_#
0^#
b0 ]#
bx \#
0[#
0Z#
0Y#
0X#
xW#
b0 V#
bx U#
0T#
0S#
b0 R#
b1101 Q#
b0 P#
bx O#
b0 N#
bx M#
0L#
0K#
b1101 J#
xI#
b0xxxxx H#
bx G#
bx F#
bx E#
bx D#
0C#
bx B#
bx A#
bx @#
b0 ?#
b0 >#
b0 =#
bx <#
x;#
x:#
bx 9#
b0 8#
bx 7#
bx 6#
bx 5#
x4#
x3#
x2#
x1#
x0#
x/#
x.#
x-#
x,#
x+#
x*#
x)#
x(#
x'#
x&#
x%#
x$#
x##
x"#
x!#
x~"
bx }"
bx |"
b0xxxxxxxxxxxxxxxx {"
bx0000000000000000 z"
bx y"
bx x"
xw"
bx v"
0u"
xt"
b0 s"
bx r"
bx q"
0p"
b0 o"
bx n"
b0 m"
b0 l"
b0 k"
bx j"
bx i"
b100 h"
b0 g"
b0 f"
bx e"
b0xxxxxxxxxxxxxxxxxxxxxxxxxx00 d"
bx c"
bx b"
0a"
0`"
b0 _"
bx ^"
bx ]"
0\"
0["
bx Z"
bx Y"
b0 X"
b0 W"
b0 V"
b0 U"
bx T"
b0 S"
0R"
0Q"
xP"
0O"
0N"
b0 M"
b0 L"
b0 K"
xJ"
0I"
xH"
0G"
b0 F"
bx E"
b0 D"
b0 C"
xB"
0A"
0@"
x?"
0>"
0="
x<"
0;"
0:"
x9"
08"
bx 7"
b0xxxxxxxx 6"
bx 5"
bx 4"
03"
x2"
01"
00"
0/"
b0 ."
x-"
0,"
x+"
bx *"
b0 )"
b0 ("
bx '"
bx &"
1%"
1$"
x#"
b0 ""
b0 !"
b0 ~
0}
b1101 |
b0 {
1z
bx y
b0 x
bx w
b0 v
bx u
bx t
xs
xr
bx q
b0 p
b0 o
b0 n
b0 m
b0 l
b0 k
b0 j
bx i
bx h
0g
bx f
bx e
bx d
b0 c
b0 b
b0 a
0`
bx _
b0 ^
bx ]
b0 \
b0 [
bx Z
b0xxxxxxxxxxxxxxxxxxxx10 Y
0X
0W
1V
0U
0T
bx S
b0 R
b0 Q
b0 P
bx O
0N
b0 M
b0 L
bx K
0J
b0 I
0H
b0 G
b1 F
b0 E
b0xxxxxxxxxxxxxxxxxxxx10 D
b111010001100101011100110111010001110011001011110111001101101100011101000110100101110101001011110111010001100101011100110111010000101110011100100110010101110011011101010110110001110100 C
0B
b1 A
b1 @
b0 ?
b0 >
bx =
bx <
b0 ;
b100000000000000000 :
b1111101000 9
b1110100011001010111001101110100011100110010111101110011011011000111010001101001011101010010111101100010011101010110100101101100011001000010111101100001011100000111000000101110011010000110010101111000 8
bx 7
bx 6
bx 5
bx 4
b111010001100101011100110111010001110011001011110111001101101100011101000110100101110101001011110111001101110100011100100110010101100001011011010111011101100001011101100110010100101110011101100110001101100100 3
b1 2
b0 1
00
b0 /
b0 .
b0 -
b0 ,
b0 +
b0 *
bx )
bx (
bx '
b0 &
b0 %
bx $
b0 #
b0 "
bx !
$end
#5000
02#
b0 H#
b100 i"
b100 j"
b0 w
b0 q"
b0 M#
03#
0w"
1t"
b0 A#
b0 *"
b0 e"
b0 5#
0+"
0)#
b100000000000001100 b"
b10000000000000100000000000000000 y
b10000000000000100000000000000000 r"
b10000000000000100000000000000000 O#
1P"
0W#
0#"
b0 Z"
b0 B#
b0 ~#
0##
0"#
0$#
0%#
0'#
0&#
b10000 T"
b10000 <#
b10000 \#
0-#
00#
0/#
0.#
01#
b1100 J#
b1100 |
b1100 Q#
b10000000000000100000000000000000 x"
0!#
0(#
0+#
0-"
1I#
04#
0:#
0;#
1,#
0~"
0B"
09"
02"
1?"
0<"
b1111 7#
b0 Y"
b0 @#
b0 }#
b10000 ]"
b10000 D#
b10000 !$
b10000 9#
b0 G#
0H"
0J"
b10 v"
b11111111111111111000000000000010 y"
b1000000000000010 {"
b10000000000000100000000000000000 z"
b1000000000000010 |"
b100001000000000000010 c"
b10000100000000000001000 d"
b111100000100001000000000000010 '"
b111100000100001000000000000010 }"
b111100000100001000000000000010 K
b111100000100001000000000000010 $
b111100000100001000000000000010 Z
b111100000100001000000000000010 &"
b111100000100001000000000000010 n"
bx S
bx &$
b0 u
b0 )
b0 i
b0 t
b0 (
b0 h
0s
0r
b0 q
10
1H
#10000
00
0H
#15000
bx &$
bx S
10
1H
#20000
1["
00
0H
b0xxxxxxxxxxxxxxxxxxxx00 D
b0xxxxxxxxxxxxxxxxxxxx00 Y
1B
1g
#25000
0V
bx ,
bx m
bx +
bx Q
bx -
bx n
0a#
1j#
1b#
b1000 i"
b1000 j"
b1 G
1O"
bx l
bx C"
bx $$
1l#
b10000000000000100000000000000000 m#
b10000000000000100000000000000000 ~
b10000000000000100000000000000000 s"
1W
b10000000000000100000000000000000 \
b10000000000000100000000000000000 ."
b10000000000000100000000000000000 ""
b10000000000000100000000000000000 n#
b1 %
b1 [
bx S
bx &$
1^#
1N"
b10000 ]#
b10000 S"
b10000 =#
b10000 s#
1[#
1>"
bx V#
bx D"
b1100 R#
b1100 {
b1100 g#
b10000000000000100000000000000000 P#
b10000000000000100000000000000000 f#
0z
b10000000000000100000000000000000 x
b10000000000000100000000000000000 e#
b111100000100001000000000000010 o"
b111100000100001000000000000010 )"
b100 k"
b100 M"
b100 f"
b100 l"
b100 ^
b100 K"
10
1H
#30000
00
0H
b1111100111 1
b0xxxxxxxxxxxxxxxxxxxx01 D
b0xxxxxxxxxxxxxxxxxxxx01 Y
#35000
b1 y
b1 r"
b1 O#
b10001 T"
b10001 <#
b10001 \#
b11 J#
b11 |
b11 Q#
b1 x"
14#
1:#
0,#
1~"
b1101 7#
b10001 ]"
b10001 D#
b10001 !$
b0 9#
b1 v"
b1 y"
b1 {"
b10000000000000000 z"
b1 |"
b100010000000000000001 c"
b10001000000000000000100 d"
b1100 i"
b1100 j"
b10 G
b110100000100010000000000000001 '"
b110100000100010000000000000001 }"
b10 %
b10 [
b1 ("
b10000000000000100000000000000000 W"
b10000000000000100000000000000000 ?#
b10000000000000100000000000000000 v#
bx 6"
bx &$
bx S
b110100000100010000000000000001 K
b110100000100010000000000000001 $
b110100000100010000000000000001 Z
b110100000100010000000000000001 &"
b110100000100010000000000000001 n"
b1000 k"
b1000 M"
b1000 f"
b1000 l"
b1000 ^
b1000 K"
b100 m"
b1100 b"
b1000 h"
b100 L"
b100 g"
b100 8#
b10000000000000100000000000000000 o#
b10000000000000100000000000000000 !"
1r#
1@"
b10000 t#
b10000 U"
b10000 >#
b10000 x#
1u#
1Q"
10
1H
#40000
00
0H
b1111100110 1
#45000
b10100 y
b10100 r"
b10100 O#
b10100 x"
b1001 T"
b1001 <#
b1001 \#
b1101 J#
b1101 |
b1101 Q#
1V
04#
0;#
1~"
b1000 7#
b1001 ]"
b1001 D#
b1001 !$
b10100 v"
b10100 y"
b10100 {"
b101000000000000000000 z"
b10100 |"
b10010000000000010100 c"
b1001000000000001010000 d"
0b#
b10000 i"
b10000 j"
b11 G
b100000000010010000000000010100 '"
b100000000010010000000000010100 }"
0j#
0l#
b1 m#
b1 ~
b1 s"
0U
0W
b1 \
b1 ."
b1 ""
b1 n#
b10 ("
b11 %
b11 [
b100000000010010000000000010100 K
b100000000010010000000000010100 $
b100000000010010000000000010100 Z
b100000000010010000000000010100 &"
b100000000010010000000000010100 n"
bx S
bx &$
1z#
1R"
b10000 y#
b10000 V"
b10000 {#
b10000000000000100000000000000000 w#
b10000000000000100000000000000000 X"
b10000000000000100000000000000000 |#
b10001 ]#
b10001 S"
b10001 =#
b10001 s#
b11 R#
b11 {
b11 g#
b1 P#
b1 f#
b1 x
b1 e#
b110100000100010000000000000001 o"
b110100000100010000000000000001 )"
b1000 m"
b1011100 b"
b1100 h"
b1000 L"
b1000 g"
b1000 8#
b1100 k"
b1100 M"
b1100 f"
b1100 l"
b1100 ^
b1100 K"
10
1H
#50000
00
0H
b1111100101 1
#55000
12#
13#
0:#
b0 x"
b0 y
b0 r"
b0 O#
b0 T"
b0 <#
b0 \#
b0 E"
b0 6#
b0 U#
b0 E#
1*#
b0 ^"
b0 F#
b0 "$
1-#
b1010 J#
b1010 |
b1010 Q#
b101 "
b101 L
0I#
1;#
0~"
b0 7#
b0 ]"
b0 D#
b0 !$
b0 v"
b0 y"
b0 {"
b0 z"
b0 |"
b0 c"
b0 d"
b10100 i"
b10100 j"
b100 G
b101 #$
b101 j
b101 *
b101 k
b101 b
b101 &
b101 c
b0 '"
b0 }"
b100 %
b100 [
b11 ("
b10100 m#
b10100 ~
b10100 s"
b10100 \
b10100 ."
b10100 ""
b10100 n#
b1 W"
b1 ?#
b1 v#
bx &$
bx S
b0 K
b0 $
b0 Z
b0 &"
b0 n"
b10000 k"
b10000 M"
b10000 f"
b10000 l"
b10000 ^
b10000 K"
b1100 m"
b10000 b"
b10000 h"
b1100 L"
b1100 g"
b1100 8#
b100000000010010000000000010100 o"
b100000000010010000000000010100 )"
b10100 P#
b10100 f#
b10100 x
b10100 e#
b1101 R#
1_#
b1101 {
b1101 g#
b1001 ]#
b1001 S"
b1001 =#
b1001 s#
b1 o#
b1 !"
b10001 t#
b10001 U"
b10001 >#
b10001 x#
10
1H
#60000
00
0H
b1111100100 1
#65000
02#
03#
1:#
b1111111111111111 y
b1111111111111111 r"
b1111111111111111 O#
b10100 w
b10100 q"
b10100 M#
b1111111111111111 x"
1w"
0t"
b10100 A#
b10100 *"
b10100 e"
b10100 5#
bx Z"
bx B#
bx ~#
bx E"
bx 6#
bx U#
bx E#
x*#
bx ^"
bx F#
bx "$
b1000 T"
b1000 <#
b1000 \#
b10100 H#
0-#
b110 J#
b110 |
b110 Q#
b0 "
b0 L
1I#
14#
0;#
1~"
b1011 7#
1u"
b1001 Y"
b1001 @#
b1001 }#
b1000 ]"
b1000 D#
b1000 !$
b11111 9#
b11111 G#
b111111 v"
b11111111111111111111111111111111 y"
b1111111111111111 {"
b11111111111111110000000000000000 z"
b1111111111111111 |"
b1001010001111111111111111 c"
b100101000111111111111111100 d"
b0 ,
b0 m
b0 +
b0 Q
b0 -
b0 n
b0 #$
b0 j
b0 *
b0 k
b0 b
b0 &
b0 c
b11000 i"
b11000 j"
b101 G
b101101001010001111111111111111 '"
b101101001010001111111111111111 }"
b10100 W"
b10100 ?#
b10100 v#
b0 l
b0 C"
b0 $$
b0 m#
b0 ~
b0 s"
b0 \
b0 ."
b0 ""
b0 n#
b100 ("
b101 %
b101 [
b101101001010001111111111111111 K
b101101001010001111111111111111 $
b101101001010001111111111111111 Z
b101101001010001111111111111111 &"
b101101001010001111111111111111 n"
bx S
bx &$
b10001 y#
b10001 V"
b10001 {#
b1 w#
b1 X"
b1 |#
b1001 t#
b1001 U"
b1001 >#
b1001 x#
b10100 o#
b10100 !"
b0 ]#
b0 S"
b0 =#
b0 s#
b0 V#
b0 D"
b1010 R#
0_#
b1010 {
b1010 g#
b0 P#
b0 f#
1z
b0 x
b0 e#
b0 o"
b0 )"
b10000 m"
b1000000000000010000 b"
b10100 h"
b10000 L"
b10000 g"
b10000 8#
b10100 k"
b10100 M"
b10100 f"
b10100 l"
b10100 ^
b10100 K"
10
1H
#70000
00
0H
b1111100011 1
